<svg xmlns="http://www.w3.org/2000/svg" xmlns:xlink="http://www.w3.org/1999/xlink" width="32" height="43" viewBox="0 0 32 43">
  <defs>
    <clipPath id="clip-Switch">
      <rect width="32" height="43"/>
    </clipPath>
  </defs>
  <g id="Switch" clip-path="url(#clip-Switch)">
    <rect id="shadow" width="15.554" height="5.64" rx="2.82" transform="translate(8 33.174)" fill="rgba(179,179,179,0.8)"/>
    <g id="pole_pin" transform="translate(3 1.833)">
      <g id="Oval" fill="#22c833" stroke-miterlimit="10">
        <path d="M 13.24998950958252 33.24360275268555 C 12.87446975708008 33.24360275268555 11.99506950378418 33.24360275268555 8.101899147033691 28.96946144104004 C 6.125049591064453 26.79917144775391 4.054559707641602 24.2501106262207 3.178739547729492 22.90837097167969 C 0.8129395246505737 19.28399085998535 -0.7500004768371582 16.88959121704102 -0.7500004768371582 12.49285125732422 C -0.7500004768371582 8.947171211242676 0.7118695378303528 5.616151332855225 3.366319417953491 3.113381385803223 C 6.008649349212646 0.6220414042472839 9.518739700317383 -0.7499986290931702 13.24998950958252 -0.7499986290931702 C 16.98123931884766 -0.7499986290931702 20.49132919311523 0.6220414042472839 23.13365936279297 3.113381385803223 C 25.78810882568359 5.616151332855225 27.24997901916504 8.947171211242676 27.24997901916504 12.49285125732422 C 27.24997901916504 16.72181129455566 25.70456886291504 19.08434104919434 23.36528968811035 22.66047096252441 L 23.2028694152832 22.90881156921387 C 22.3629093170166 24.19365119934082 20.29107856750488 26.77000045776367 18.38364028930664 28.90164184570313 C 17.30863952636719 30.10298156738281 16.33219909667969 31.11334228515625 15.55986976623535 31.82350158691406 C 14.20253944396973 33.07155990600586 13.64754962921143 33.24360275268555 13.24998950958252 33.24360275268555 Z" stroke="none"/>
        <path d="M 13.24998950958252 32.49360275268555 C 14.59439945220947 32.49360275268555 20.99650955200195 24.91310119628906 22.57511901855469 22.49841117858887 C 25.00177955627441 18.78652191162109 26.49997901916504 16.5905818939209 26.49997901916504 12.49285125732422 C 26.49997901916504 5.593241214752197 20.56775856018066 1.376342765979643e-06 13.24998950958252 1.376342765979643e-06 C 5.932219505310059 1.376342765979643e-06 -4.904175057163229e-07 5.593241214752197 -4.904175057163229e-07 12.49285125732422 C -4.904175057163229e-07 16.61190223693848 1.388229489326477 18.79322052001953 3.806779623031616 22.49841117858887 C 5.492469310760498 25.08085060119629 11.90557956695557 32.49360275268555 13.24998950958252 32.49360275268555 M 13.24998950958252 33.99360275268555 C 12.49419975280762 33.99360275268555 11.70653915405273 33.54952239990234 10.44066905975342 32.40972137451172 C 9.641719818115234 31.69034194946289 8.641249656677246 30.67536163330078 7.547439575195313 29.47451210021973 C 5.547059535980225 27.27838134765625 3.445619583129883 24.6893310546875 2.550699472427368 23.31832122802734 C 0.1114495098590851 19.58143043518066 -1.500000476837158 17.11270141601563 -1.500000476837158 12.49285125732422 C -1.500000476837158 8.738461494445801 0.04549951106309891 5.213641166687012 2.851809501647949 2.567691326141357 C 5.633869647979736 -0.05539862439036369 9.326679229736328 -1.499998569488525 13.24998950958252 -1.499998569488525 C 17.17329978942871 -1.499998569488525 20.86610984802246 -0.05539862439036369 23.64816856384277 2.567691326141357 C 26.4544792175293 5.213641166687012 27.99997901916504 8.738461494445801 27.99997901916504 12.49285125732422 C 27.99997901916504 16.94533157348633 26.4058895111084 19.38227081298828 23.99292945861816 23.07103157043457 L 23.83062934875488 23.31920051574707 C 22.95890998840332 24.65261077880859 20.90316963195801 27.21070098876953 18.94253921508789 29.40176200866699 C 17.85161018371582 30.62092208862305 16.8574390411377 31.64925193786621 16.06750869750977 32.37559127807617 C 14.80120944976807 33.53995132446289 14.01124954223633 33.99360275268555 13.24998950958252 33.99360275268555 Z" stroke="none" fill="#fff"/>
      </g>
    </g>
    <path id="Path_952" data-name="Path 952" d="M75.956,6.062H74.161v-1.2h.6a.6.6,0,1,0,0-1.2h-.6v-1.2h.6a.6.6,0,1,0,0-1.2h-.6V.6a.6.6,0,1,0-1.2,0v.678h-.6a.6.6,0,0,0,0,1.2h.6v1.2h-.6a.6.6,0,0,0,0,1.2h.6v1.2H69.375v-1.2h.6a.6.6,0,1,0,0-1.2h-.6v-1.2h.6a.6.6,0,1,0,0-1.2h-.6V.6a.6.6,0,1,0-1.2,0v.678h-.6a.6.6,0,0,0,0,1.2h.6v1.2h-.6a.6.6,0,0,0,0,1.2h.6v1.2H64.589v-1.2h.6a.6.6,0,1,0,0-1.2h-.6v-1.2h.6a.6.6,0,1,0,0-1.2h-.6V.6a.6.6,0,1,0-1.2,0v.678h-.6a.6.6,0,1,0,0,1.2h.6v1.2h-.6a.6.6,0,1,0,0,1.2h.6v1.2H61.6a.6.6,0,0,0-.6.6V8.455H76.554V6.66A.6.6,0,0,0,75.956,6.062Z" transform="translate(-53 10.941)" fill="#fff"/>
  </g>
</svg>
