<svg xmlns="http://www.w3.org/2000/svg" xmlns:xlink="http://www.w3.org/1999/xlink" width="32" height="43" viewBox="0 0 32 43">
  <defs>
    <clipPath id="clip-Support_structure">
      <rect width="32" height="43"/>
    </clipPath>
  </defs>
  <g id="Support_structure" clip-path="url(#clip-Support_structure)">
    <rect id="shadow" width="15.554" height="5.64" rx="2.82" transform="translate(8 33.174)" fill="rgba(179,179,179,0.8)"/>
    <g id="pole_pin" transform="translate(3 1.833)">
      <g id="Oval" fill="#2da4ff" stroke-miterlimit="10">
        <path d="M 13.24998950958252 33.24360275268555 C 12.87446975708008 33.24360275268555 11.99506950378418 33.24360275268555 8.101899147033691 28.96946144104004 C 6.125049591064453 26.79917144775391 4.054559707641602 24.2501106262207 3.178739547729492 22.90837097167969 C 0.8129395246505737 19.28399085998535 -0.7500004768371582 16.88959121704102 -0.7500004768371582 12.49285125732422 C -0.7500004768371582 8.947171211242676 0.7118695378303528 5.616151332855225 3.366319417953491 3.113381385803223 C 6.008649349212646 0.6220414042472839 9.518739700317383 -0.7499986290931702 13.24998950958252 -0.7499986290931702 C 16.98123931884766 -0.7499986290931702 20.49132919311523 0.6220414042472839 23.13365936279297 3.113381385803223 C 25.78810882568359 5.616151332855225 27.24997901916504 8.947171211242676 27.24997901916504 12.49285125732422 C 27.24997901916504 16.72181129455566 25.70456886291504 19.08434104919434 23.36528968811035 22.66047096252441 L 23.2028694152832 22.90881156921387 C 22.3629093170166 24.19365119934082 20.29107856750488 26.77000045776367 18.38364028930664 28.90164184570313 C 17.30863952636719 30.10298156738281 16.33219909667969 31.11334228515625 15.55986976623535 31.82350158691406 C 14.20253944396973 33.07155990600586 13.64754962921143 33.24360275268555 13.24998950958252 33.24360275268555 Z" stroke="none"/>
        <path d="M 13.24998950958252 32.49360275268555 C 14.59439945220947 32.49360275268555 20.99650955200195 24.91310119628906 22.57511901855469 22.49841117858887 C 25.00177955627441 18.78652191162109 26.49997901916504 16.5905818939209 26.49997901916504 12.49285125732422 C 26.49997901916504 5.593241214752197 20.56775856018066 1.376342765979643e-06 13.24998950958252 1.376342765979643e-06 C 5.932219505310059 1.376342765979643e-06 -4.904175057163229e-07 5.593241214752197 -4.904175057163229e-07 12.49285125732422 C -4.904175057163229e-07 16.61190223693848 1.388229489326477 18.79322052001953 3.806779623031616 22.49841117858887 C 5.492469310760498 25.08085060119629 11.90557956695557 32.49360275268555 13.24998950958252 32.49360275268555 M 13.24998950958252 33.99360275268555 C 12.49419975280762 33.99360275268555 11.70653915405273 33.54952239990234 10.44066905975342 32.40972137451172 C 9.641719818115234 31.69034194946289 8.641249656677246 30.67536163330078 7.547439575195313 29.47451210021973 C 5.547059535980225 27.27838134765625 3.445619583129883 24.6893310546875 2.550699472427368 23.31832122802734 C 0.1114495098590851 19.58143043518066 -1.500000476837158 17.11270141601563 -1.500000476837158 12.49285125732422 C -1.500000476837158 8.738461494445801 0.04549951106309891 5.213641166687012 2.851809501647949 2.567691326141357 C 5.633869647979736 -0.05539862439036369 9.326679229736328 -1.499998569488525 13.24998950958252 -1.499998569488525 C 17.17329978942871 -1.499998569488525 20.86610984802246 -0.05539862439036369 23.64816856384277 2.567691326141357 C 26.4544792175293 5.213641166687012 27.99997901916504 8.738461494445801 27.99997901916504 12.49285125732422 C 27.99997901916504 16.94533157348633 26.4058895111084 19.38227081298828 23.99292945861816 23.07103157043457 L 23.83062934875488 23.31920051574707 C 22.95890998840332 24.65261077880859 20.90316963195801 27.21070098876953 18.94253921508789 29.40176200866699 C 17.85161018371582 30.62092208862305 16.8574390411377 31.64925193786621 16.06750869750977 32.37559127807617 C 14.80120944976807 33.53995132446289 14.01124954223633 33.99360275268555 13.24998950958252 33.99360275268555 Z" stroke="none" fill="#fff"/>
      </g>
    </g>
    <g id="electric-structure-metallic-tower" transform="translate(8 3.818)">
      <path id="Path_967" data-name="Path 967" d="M104.946,94.768l.042.141L103.039,96.1l-1.846-1.186.045-.149Z" transform="translate(-95.224 -84.302)" fill="#fff"/>
      <path id="Path_968" data-name="Path 968" d="M105.188,69.687l.27-.9h2.787l.27.9Z" transform="translate(-98.983 -59.855)" fill="#fff"/>
      <path id="Path_969" data-name="Path 969" d="M85,130.089l2.844,1.827H82.035l0-.011Z" transform="translate(-77.196 -117.54)" fill="#fff"/>
      <path id="Path_970" data-name="Path 970" d="M86.733,110.219l.663-2.207,1.435.922Z" transform="translate(-81.617 -96.765)" fill="#fff"/>
      <path id="Path_971" data-name="Path 971" d="M86.987,173.361,84.1,171.813h5.582Z" transform="translate(-79.14 -156.802)" fill="#fff"/>
      <path id="Path_972" data-name="Path 972" d="M61,181.312l-3.817,2.329,1.133-3.77Z" transform="translate(-53.812 -164.385)" fill="#fff"/>
      <path id="Path_973" data-name="Path 973" d="M144.328,179.405l2.681-1.539,1.169,3.888Z" transform="translate(-135.815 -162.498)" fill="#fff"/>
      <path id="Path_974" data-name="Path 974" d="M142.542,108.754l1.545-.947.722,2.4Z" transform="translate(-134.134 -96.572)" fill="#fff"/>
      <path id="Path_975" data-name="Path 975" d="M67.164,98.257a.3.3,0,0,0,.1.114l.164.105-.92,3.06-.405.248Z" transform="translate(-62.205 -87.585)" fill="#fff"/>
      <path id="Path_976" data-name="Path 976" d="M39.769,174.509,34.548,177.7l-.472-.142,1.64-5.461.285.153-1.408,4.687a.317.317,0,0,0,.469.362l4.271-2.606.369-.212.081.024Z" transform="translate(-32.066 -157.066)" fill="#fff"/>
      <path id="Path_977" data-name="Path 977" d="M141.176,174.375l-5.221-3.186-.015-.008.077-.024.229.123,4.415,2.694a.317.317,0,0,0,.469-.362l-1.449-4.823.13-.075.007-.007a.3.3,0,0,0,.054-.041s.008-.01.013-.015l.008-.01.016-.019.01-.012a.159.159,0,0,0,.009-.024.259.259,0,0,0,.015-.022l1.7,5.669Z" transform="translate(-127.922 -153.746)" fill="#fff"/>
      <path id="Path_978" data-name="Path 978" d="M179.607,102.255l0,0-.408-.262-.983-3.272.17-.1a.31.31,0,0,0,.1-.1Z" transform="translate(-167.701 -87.826)" fill="#fff"/>
      <path id="Path_979" data-name="Path 979" d="M40.567,52.98H36.631a.317.317,0,0,0-.3.408l.338,1.126-.009,0h-.322l-.393-1.307a.317.317,0,0,0-.3-.226H32.379a.317.317,0,0,0-.3.226l-.392,1.307h-.31c-.008,0-.014,0-.022,0l.339-1.128a.317.317,0,0,0-.3-.408H27.779v-.317H40.567v.317Z" transform="translate(-26.14 -44.68)" fill="#fff"/>
      <path id="Path_980" data-name="Path 980" d="M37.331,5.182h7.66l2.126,2.166H35.205Z" transform="translate(-33.128)" fill="#fff"/>
      <path id="Path_981" data-name="Path 981" d="M.019,74.427a.317.317,0,0,0,.4.193l2.536-.9.005,0a.316.316,0,0,0,.083-.049c.007-.005.015-.008.021-.014a.318.318,0,0,0,.071-.1.216.216,0,0,0,.008-.031.309.309,0,0,0,.022-.085h0L3.276,71.8a.318.318,0,0,0-.3-.337.322.322,0,0,0-.337.3l-.092,1.43-2.339.828A.319.319,0,0,0,.019,74.427Z" transform="translate(0 -62.375)" fill="#fff"/>
      <path id="Path_982" data-name="Path 982" d="M216.813,70.776h0a.313.313,0,0,0,.022.085c0,.01,0,.022.008.031a.312.312,0,0,0,.071.1c.006.006.014.008.021.014a.322.322,0,0,0,.083.049l.006,0,2.537.9a.317.317,0,1,0,.212-.6l-2.339-.829-.092-1.43a.317.317,0,1,0-.633.041l.106,1.636Z" transform="translate(-203.924 -59.867)" fill="#fff"/>
    </g>
  </g>
</svg>
